…
clean_arm_dataset
```

    ## # A tibble: 160 × 4
    ##    file_names subject_ID arm_value week 
    ##    <fct>      <fct>          <dbl> <fct>
    ##  1 Control    1               0.2  1    
    ##  2 Control    2               1.13 1    
    ##  3 Control    3               1.77 1    
    ##  4 Control    4               1.04 1    
    ##  5 Control    5               0.47 1    
    ##  6 Control    6               2.37 1    
    ##  7 Control    7               0.03 1    
    ##  8 Control    8              -0.08 1    
    ##  9 Control    9               0.08 1    
    ## 10 Control    10              2.14 1    
    ## # ℹ 150 more rows
…
